Brandon LeBeau – Data Visualization - Static and Interactive Graphics using R
…
lotr <- read_tsv('https://raw.githubusercontent.com/jennybc/lotr/master/lotr_clean.tsv')

## Parsed with column specification:
## cols(
##   Film = col_character(),
##   Chapter = col_character(),
##   Character = col_character(),
##   Race = col_character(),
##   Words = col_integer()
## )

lotr

## # A tibble: 682 x 5
##    Film                       Chapter                Character Race  Words
##    <chr>                      <chr>                  <chr>     <chr> <int>
##  1 The Fellowship Of The Ring 01: Prologue           Bilbo     Hobb~     4
##  2 The Fellowship Of The Ring 01: Prologue           Elrond    Elf       5
##  3 The Fellowship Of The Ring 01: Prologue           Galadriel Elf     460
##  4 The Fellowship Of The Ring 02: Concerning Hobbits Bilbo     Hobb~   214
##  5 The Fellowship Of The Ring 03: The Shire          Bilbo     Hobb~    70
##  6 The Fellowship Of The Ring 03: The Shire          Frodo     Hobb~   128
##  7 The Fellowship Of The Ring 03: The Shire          Gandalf   Wiza~   197
##  8 The Fellowship Of The Ring 03: The Shire          Hobbit K~ Hobb~    10
##  9 The Fellowship Of The Ring 03: The Shire          Hobbits   Hobb~    12
## 10 The Fellowship Of The Ring 04: Very Old Friends   Bilbo     Hobb~   339
## # ... with 672 more rows
…
