Remove leading 0 with ggplot2 – Brandon LeBeau
…
The following objects are masked from 'package:base':

    intersect, setdiff, setequal, union

simdata_agg <- simdata %>%
  group_by(x_rd, group, facet) %>%
  summarise(y = mean(y))

`summarise()` has grouped output by 'x_rd', 'group'. You can override using the
`.groups` argument.

simdata_agg 

# A tibble: 950 × 4
# Groups:   x_rd, group [358]
    x_rd group facet        y
   <dbl> <dbl> <int>    <dbl>
 1 0.032     1     1 -0.156  
 2 0.032     1     2  0.0546 
 3 0.032     2     1 -0.0216 
 4 0.032     2     2 -0.0949 
 5 0.033     1     1 -0.0937 
 6 0.033     1     3 -0.0118 
 7 0.033     2     1  0.0271 
 8 0.033     2     2 -0.0677 
 9 0.033     2     3  1.16   
10 0.034     1     1 -0.00662
# ℹ 940 more rows
…
